{
  "apps": [
    {
        "serverURL": "http://applinova-parse.azurewebsites.net/parse",
        "appId": "121bc2d8-e8b1-4606-9393-4522073c460c",
        "masterKey": "29135d1c-dda9-484f-b04c-4d3c9f8c39d3",
        "appName": "MyApp"
      }
  ],
  "users": [
    {
      "user":"luffydam",
      "pass":"azerty88"
    }
  ]
}
